<?xml version="1.0" encoding="UTF-8"?>
<glyph name="LtnSmYDiaer" format="2">
  <advance width="976"/>
  <unicode hex="00FF"/>
  <outline>
    <component base="LtnSmY"/>
    <component base="CombDiaer" xOffset="980"/>
  </outline>
</glyph>
